R: {readr} y {tidyr}
…
leer el archivo en formato .csv con read_csv()

comparar el formato de los objetos en (1) y en (2)

{tidyr}:
 Ordenar datos desordenados

{tidyr}: Ordenar datos desordenados

tidyr proporciona varias funciones que lo ayudan a llevar sus datos al formato tidy (por ejemplo, remodelar datos, dividir columnas, manejar valores faltantes o anidar datos).

penguins

# A tibble: 344 × 8
   species island    bill_length_mm bill_depth_mm flipper_…¹ body_…² sex    year
   <fct>   <fct>              <dbl>         <dbl>      <int>   <int> <fct> <int>
 1 Adelie  Torgersen           39.1          18.7        181    3750 male   2007
 2 Adelie  Torgersen           39.5          17.4        186    3800 fema…  2007
 3 Adelie  Torgersen           40.3          18          195    3250 fema…  2007
 4 Adelie  Torgersen           NA            NA           NA      NA <NA>   2007
 5 Adelie  Torgersen           36.7          19.3        193    3450 fema…  2007
 6 Adelie  Torgersen           39.3          20.6        190    3650 male   2007
 7 Adelie  Torgersen           38.9          17.8        181    3625 fema…  2007
 8 Adelie  Torgersen           39.2          19.6        195    4675 male   2007
 9 Adelie  Torgersen           34.1          18.1        193    3475 <NA>   2007
10 Adelie  Torgersen           42            20.2        190    4250 <NA>   2007
# … with 334 more rows, and abbreviated variable names ¹​flipper_length_mm,
#   ²​body_mass_g
…
Nota: Encuentre más información sobre pivot_*() en la pivoting vignette.

Source: Allison Hill

{tidyr}: Ordenar datos desordenados

Anidamiento (nesting): agrupa datos similares de modo que cada grupo se convierte en una sola fila en un marco de datos.

Data original
Data anidada

penguins

# A tibble: 344 × 8
   species island    bill_length_mm bill_depth_mm flipper_…¹ body_…² sex    year
   <fct>   <fct>              <dbl>         <dbl>      <int>   <int> <fct> <int>
 1 Adelie  Torgersen           39.1          18.7        181    3750 male   2007
 2 Adelie  Torgersen           39.5          17.4        186    3800 fema…  2007
 3 Adelie  Torgersen           40.3          18          195    3250 fema…  2007
 4 Adelie  Torgersen           NA            NA           NA      NA <NA>   2007
 5 Adelie  Torgersen           36.7          19.3        193    3450 fema…  2007
 6 Adelie  Torgersen           39.3          20.6        190    3650 male   2007
 7 Adelie  Torgersen           38.9          17.8        181    3625 fema…  2007
 8 Adelie  Torgersen           39.2          19.6        195    4675 male   2007
 9 Adelie  Torgersen           34.1          18.1        193    3475 <NA>   2007
10 Adelie  Torgersen           42            20.2        190    4250 <NA>   2007
# … with 334 more rows, and abbreviated variable names ¹​flipper_length_mm,
#   ²​body_mass_g
…
{tidyr}: Ordenar datos desordenados

Rectangular: desenreda las estructuras de datos anidadas (p. ej., JSON, HTML) y las lleva al formato de datos ordenados.

Data original
Data anidada
pluck()
unnest()
hoist()

penguins

# A tibble: 344 × 8
   species island    bill_length_mm bill_depth_mm flipper_…¹ body_…² sex    year
   <fct>   <fct>              <dbl>         <dbl>      <int>   <int> <fct> <int>
 1 Adelie  Torgersen           39.1          18.7        181    3750 male   2007
 2 Adelie  Torgersen           39.5          17.4        186    3800 fema…  2007
 3 Adelie  Torgersen           40.3          18          195    3250 fema…  2007
 4 Adelie  Torgersen           NA            NA           NA      NA <NA>   2007
 5 Adelie  Torgersen           36.7          19.3        193    3450 fema…  2007
 6 Adelie  Torgersen           39.3          20.6        190    3650 male   2007
 7 Adelie  Torgersen           38.9          17.8        181    3625 fema…  2007
 8 Adelie  Torgersen           39.2          19.6        195    4675 male   2007
 9 Adelie  Torgersen           34.1          18.1        193    3475 <NA>   2007
10 Adelie  Torgersen           42            20.2        190    4250 <NA>   2007
# … with 334 more rows, and abbreviated variable names ¹​flipper_length_mm,
#   ²​body_mass_g
…
Extraiga objetos individuales de una estructura de datos anidados mediante purrr::pluck().

nested_penguins |> purrr::pluck("nested_data", 1)

# A tibble: 50 × 6
   island    bill_length_mm bill_depth_mm flipper_length_mm body_mass_g sex   
   <fct>              <dbl>         <dbl>             <int>       <int> <fct> 
 1 Torgersen           39.1          18.7               181        3750 male  
 2 Torgersen           39.5          17.4               186        3800 female
 3 Torgersen           40.3          18                 195        3250 female
 4 Torgersen           NA            NA                  NA          NA <NA>  
 5 Torgersen           36.7          19.3               193        3450 female
 6 Torgersen           39.3          20.6               190        3650 male  
 7 Torgersen           38.9          17.8               181        3625 female
 8 Torgersen           39.2          19.6               195        4675 male  
 9 Torgersen           34.1          18.1               193        3475 <NA>  
10 Torgersen           42            20.2               190        4250 <NA>  
# … with 40 more rows

Aplane las estructuras de datos anidadas mediante tidyr::unnest().

nested_penguins |> unnest(cols = c(nested_data)) 

# A tibble: 344 × 8
   species  year island    bill_length_mm bill_depth_mm flipper_…¹ body_…² sex  
   <fct>   <int> <fct>              <dbl>         <dbl>      <int>   <int> <fct>
 1 Adelie   2007 Torgersen           39.1          18.7        181    3750 male 
 2 Adelie   2007 Torgersen           39.5          17.4        186    3800 fema…
 3 Adelie   2007 Torgersen           40.3          18          195    3250 fema…
 4 Adelie   2007 Torgersen           NA            NA           NA      NA <NA> 
 5 Adelie   2007 Torgersen           36.7          19.3        193    3450 fema…
 6 Adelie   2007 Torgersen           39.3          20.6        190    3650 male 
 7 Adelie   2007 Torgersen           38.9          17.8        181    3625 fema…
 8 Adelie   2007 Torgersen           39.2          19.6        195    4675 male 
 9 Adelie   2007 Torgersen           34.1          18.1        193    3475 <NA> 
10 Adelie   2007 Torgersen           42            20.2        190    4250 <NA> 
# … with 334 more rows, and abbreviated variable names ¹​flipper_length_mm,
#   ²​body_mass_g
…
{tidyr}: Ordenar datos desordenados

Dividir y Combinar: transforma una columna de un solo carácter en varias columnas y viceversa.

Data original
unite()
separate()
separate_rows()

penguins 

# A tibble: 344 × 8
   species island    bill_length_mm bill_depth_mm flipper_…¹ body_…² sex    year
   <fct>   <fct>              <dbl>         <dbl>      <int>   <int> <fct> <int>
 1 Adelie  Torgersen           39.1          18.7        181    3750 male   2007
 2 Adelie  Torgersen           39.5          17.4        186    3800 fema…  2007
 3 Adelie  Torgersen           40.3          18          195    3250 fema…  2007
 4 Adelie  Torgersen           NA            NA           NA      NA <NA>   2007
 5 Adelie  Torgersen           36.7          19.3        193    3450 fema…  2007
 6 Adelie  Torgersen           39.3          20.6        190    3650 male   2007
 7 Adelie  Torgersen           38.9          17.8        181    3625 fema…  2007
 8 Adelie  Torgersen           39.2          19.6        195    4675 male   2007
 9 Adelie  Torgersen           34.1          18.1        193    3475 <NA>   2007
10 Adelie  Torgersen           42            20.2        190    4250 <NA>   2007
# … with 334 more rows, and abbreviated variable names ¹​flipper_length_mm,
#   ²​body_mass_g

Contraiga varias columnas en una sola columna.

penguins |> unite(col = "species_gender", c(species, sex), sep = "_", remove = T)

# A tibble: 344 × 7
   species_gender island    bill_length_mm bill_depth_mm flipper…¹ body_…²  year
   <chr>          <fct>              <dbl>         <dbl>     <int>   <int> <int>
 1 Adelie_male    Torgersen           39.1          18.7       181    3750  2007
 2 Adelie_female  Torgersen           39.5          17.4       186    3800  2007
 3 Adelie_female  Torgersen           40.3          18         195    3250  2007
 4 Adelie_NA      Torgersen           NA            NA          NA      NA  2007
 5 Adelie_female  Torgersen           36.7          19.3       193    3450  2007
 6 Adelie_male    Torgersen           39.3          20.6       190    3650  2007
 7 Adelie_female  Torgersen           38.9          17.8       181    3625  2007
 8 Adelie_male    Torgersen           39.2          19.6       195    4675  2007
 9 Adelie_NA      Torgersen           34.1          18.1       193    3475  2007
10 Adelie_NA      Torgersen           42            20.2       190    4250  2007
# … with 334 more rows, and abbreviated variable names ¹​flipper_length_mm,
#   ²​body_mass_g

Separe una sola columna, que contenga varios valores, en varias columnas.

penguins |> separate(bill_length_mm, sep = 2, into = c("cm", "mm"))

# A tibble: 344 × 9
   species island    cm    mm    bill_depth_mm flipper_len…¹ body_…² sex    year
   <fct>   <fct>     <chr> <chr>         <dbl>         <int>   <int> <fct> <int>
 1 Adelie  Torgersen 39    ".1"           18.7           181    3750 male   2007
 2 Adelie  Torgersen 39    ".5"           17.4           186    3800 fema…  2007
 3 Adelie  Torgersen 40    ".3"           18             195    3250 fema…  2007
 4 Adelie  Torgersen <NA>  <NA>           NA              NA      NA <NA>   2007
 5 Adelie  Torgersen 36    ".7"           19.3           193    3450 fema…  2007
 6 Adelie  Torgersen 39    ".3"           20.6           190    3650 male   2007
 7 Adelie  Torgersen 38    ".9"           17.8           181    3625 fema…  2007
 8 Adelie  Torgersen 39    ".2"           19.6           195    4675 male   2007
 9 Adelie  Torgersen 34    ".1"           18.1           193    3475 <NA>   2007
10 Adelie  Torgersen 42    ""             20.2           190    4250 <NA>   2007
# … with 334 more rows, and abbreviated variable names ¹​flipper_length_mm,
#   ²​body_mass_g

Separe una sola columna, que contenga varios valores, en varias filas.

penguins |> separate_rows(island, sep = "s")

# A tibble: 564 × 8
   species island bill_length_mm bill_depth_mm flipper_len…¹ body_…² sex    year
   <fct>   <chr>           <dbl>         <dbl>         <int>   <int> <fct> <int>
 1 Adelie  Torger           39.1          18.7           181    3750 male   2007
 2 Adelie  en               39.1          18.7           181    3750 male   2007
 3 Adelie  Torger           39.5          17.4           186    3800 fema…  2007
 4 Adelie  en               39.5          17.4           186    3800 fema…  2007
 5 Adelie  Torger           40.3          18             195    3250 fema…  2007
 6 Adelie  en               40.3          18             195    3250 fema…  2007
 7 Adelie  Torger           NA            NA              NA      NA <NA>   2007
 8 Adelie  en               NA            NA              NA      NA <NA>   2007
 9 Adelie  Torger           36.7          19.3           193    3450 fema…  2007
10 Adelie  en               36.7          19.3           193    3450 fema…  2007
# … with 554 more rows, and abbreviated variable names ¹​flipper_length_mm,
#   ²​body_mass_g
…
