Evaluación 2
…
f <- function(fl,bl,sex){
  i_mal <- which(sex == 'male')
  i_fem <- which(sex == 'female')
  x <- rep(NA,length(fl))
  x[i_mal] <- fl[i_mal] + bl[i_mal]
  x[i_fem] <- fl[i_fem] - bl[i_fem]
  return(x)
}

penguins |> 
  #group_by(species) |> 
  mutate(new_var = f(flipper_length_mm,bill_length_mm,sex))

# A tibble: 344 × 9
   species island    bill_length_mm bill_d…¹ flipp…² body_…³ sex    year new_var
   <fct>   <fct>              <dbl>    <dbl>   <int>   <int> <fct> <int>   <dbl>
 1 Adelie  Torgersen           39.1     18.7     181    3750 male   2007    220.
 2 Adelie  Torgersen           39.5     17.4     186    3800 fema…  2007    146.
 3 Adelie  Torgersen           40.3     18       195    3250 fema…  2007    155.
 4 Adelie  Torgersen           NA       NA        NA      NA <NA>   2007     NA 
 5 Adelie  Torgersen           36.7     19.3     193    3450 fema…  2007    156.
 6 Adelie  Torgersen           39.3     20.6     190    3650 male   2007    229.
 7 Adelie  Torgersen           38.9     17.8     181    3625 fema…  2007    142.
 8 Adelie  Torgersen           39.2     19.6     195    4675 male   2007    234.
 9 Adelie  Torgersen           34.1     18.1     193    3475 <NA>   2007     NA 
10 Adelie  Torgersen           42       20.2     190    4250 <NA>   2007     NA 
# … with 334 more rows, and abbreviated variable names ¹​bill_depth_mm,
#   ²​flipper_length_mm, ³​body_mass_g
…
Solución:

f1 <- function(x){
  if(is.numeric(x)){
    ifelse(all(x >= 13.1 & x <= 60,na.rm = TRUE),TRUE,FALSE)
  } else FALSE
}

library(palmerpenguins)
library(dplyr)
penguins |> 
  select(where(f1))

# A tibble: 344 × 2
   bill_length_mm bill_depth_mm
            <dbl>         <dbl>
 1           39.1          18.7
 2           39.5          17.4
 3           40.3          18  
 4           NA            NA  
 5           36.7          19.3
 6           39.3          20.6
 7           38.9          17.8
 8           39.2          19.6
 9           34.1          18.1
10           42            20.2
# … with 334 more rows
…
