Evaluación Recuperativa
…
[[1]]
[1] "Sepal.Length" "Sepal.Width"  "Petal.Length" "Petal.Width" 

[[2]]
[1] "Sepal.Length" "Sepal.Width"  "Petal.Length" "Petal.Width" 

[[3]]
[1] "Sepal.Length" "Sepal.Width"  "Petal.Length" "Petal.Width" 

Utilice lapply sobre la columna list-column data que permita obtener la primera y cuarta columna de cada data.frame anidado. (30pts)

data$data |> lapply(\(x) x[,c(1,4)])

[[1]]
# A tibble: 50 × 2
   Sepal.Length Petal.Width
          <dbl>       <dbl>
 1          5.1         0.2
 2          4.9         0.2
 3          4.7         0.2
 4          4.6         0.2
 5          5           0.2
 6          5.4         0.4
 7          4.6         0.3
 8          5           0.2
 9          4.4         0.2
10          4.9         0.1
# … with 40 more rows

[[2]]
# A tibble: 50 × 2
   Sepal.Length Petal.Width
          <dbl>       <dbl>
 1          7           1.4
 2          6.4         1.5
 3          6.9         1.5
 4          5.5         1.3
 5          6.5         1.5
 6          5.7         1.3
 7          6.3         1.6
 8          4.9         1  
 9          6.6         1.3
10          5.2         1.4
# … with 40 more rows

[[3]]
# A tibble: 50 × 2
   Sepal.Length Petal.Width
          <dbl>       <dbl>
 1          6.3         2.5
 2          5.8         1.9
 3          7.1         2.1
 4          6.3         1.8
 5          6.5         2.2
 6          7.6         2.1
 7          4.9         1.7
 8          7.3         1.8
 9          6.7         1.8
10          7.2         2.5
# … with 40 more rows
…
Utilice funciones de tidyr para extraer las columnas de fecha_hora,temp_promedio_aire, temp_minima y temp_maxima. (50pts)

data_unnest <- data_nest |>  
  hoist(data,
        fecha_hora = 'fecha_hora',
        temp_prom = 'temp_promedio_aire',
        temp_max = 'temp_maxima',
        temp_min = 'temp_minima') |> 
  unnest(cols = c(fecha_hora,temp_prom,temp_max,temp_min)) |> 
  select(-data)
data_unnest

# A tibble: 43,680 × 5
   station_id fecha_hora          temp_prom temp_max temp_min
        <dbl> <dttm>                  <dbl>    <dbl>    <dbl>
 1         78 2021-01-01 03:00:00      13.9     13.9     13.9
 2         78 2021-01-01 04:00:00      NA       NA       NA  
 3         78 2021-01-01 05:00:00      14.3     14.3     14.3
 4         78 2021-01-01 06:00:00      13.1     13.1     13.1
 5         78 2021-01-01 07:00:00      13       13.9     12.4
 6         78 2021-01-01 08:00:00      NA       NA       NA  
 7         78 2021-01-01 09:00:00      20       20       20  
 8         78 2021-01-01 10:00:00      NA       NA       NA  
 9         78 2021-01-01 11:00:00      NA       NA       NA  
10         78 2021-01-01 12:00:00      NA       NA       NA  
# … with 43,670 more rows

Calcule el promedio mensual de todas las temperaturas para cada estación. (40pts)

library(lubridate)

data_mes <- data_unnest |> 
  group_by(station_id, mes = floor_date(fecha_hora, '1 month')) |> 
  summarize(across(contains('temp'),mean,na.rm = TRUE))
data_mes

# A tibble: 60 × 5
# Groups:   station_id [5]
   station_id mes                 temp_prom temp_max temp_min
        <dbl> <dttm>                  <dbl>    <dbl>    <dbl>
 1         78 2021-01-01 00:00:00     18.1     18.4     17.8 
 2         78 2021-02-01 00:00:00     17.6     18.0     17.2 
 3         78 2021-03-01 00:00:00     17.1     17.6     16.7 
 4         78 2021-04-01 00:00:00     14.9     15.4     14.5 
 5         78 2021-05-01 00:00:00     12.8     13.1     12.4 
 6         78 2021-06-01 00:00:00     10.9     11.2     10.5 
 7         78 2021-07-01 00:00:00      9.13     9.50     8.76
 8         78 2021-08-01 00:00:00     10.4     10.7     10.0 
 9         78 2021-09-01 00:00:00     12.0     12.5     11.6 
10         78 2021-10-01 00:00:00     14.6     15.1     14.1 
# … with 50 more rows

Convierta la data mensual en data en formato largo. (30pts)

data_long <- data_mes |> 
  pivot_longer(3:5)
data_long

# A tibble: 180 × 4
# Groups:   station_id [5]
   station_id mes                 name      value
        <dbl> <dttm>              <chr>     <dbl>
 1         78 2021-01-01 00:00:00 temp_prom  18.1
 2         78 2021-01-01 00:00:00 temp_max   18.4
 3         78 2021-01-01 00:00:00 temp_min   17.8
 4         78 2021-02-01 00:00:00 temp_prom  17.6
 5         78 2021-02-01 00:00:00 temp_max   18.0
 6         78 2021-02-01 00:00:00 temp_min   17.2
 7         78 2021-03-01 00:00:00 temp_prom  17.1
 8         78 2021-03-01 00:00:00 temp_max   17.6
 9         78 2021-03-01 00:00:00 temp_min   16.7
10         78 2021-04-01 00:00:00 temp_prom  14.9
# … with 170 more rows
…
