Taller 4: Transformación de datos y visualización
…
Utilice la función para clasificar los set de datos agromet en todas las variables climáticas, salvo en grados_dias y horas_frio, use la función como anónima.

Code

data_agro |> 
  select(station_id:direccion_del_viento) |> 
  mutate(station_id = as.factor(station_id)) |> 
  mutate(across(where(is.numeric),\(x) cut(x,3,labels = c('alto','medio','bajo'))))

# A tibble: 3,573,024 × 11
   station…¹ fecha_hora          temp_…² preci…³ humed…⁴ presi…⁵ radia…⁶ veloc…⁷
   <fct>     <dttm>              <fct>   <fct>   <fct>   <fct>   <fct>   <fct>  
 1 1         2021-01-01 03:00:00 medio   alto    alto    bajo    alto    alto   
 2 1         2021-01-01 04:00:00 medio   alto    alto    bajo    alto    alto   
 3 1         2021-01-01 05:00:00 medio   alto    alto    bajo    alto    alto   
 4 1         2021-01-01 06:00:00 medio   alto    alto    bajo    alto    alto   
 5 1         2021-01-01 07:00:00 <NA>    <NA>    <NA>    <NA>    <NA>    <NA>   
 6 1         2021-01-01 08:00:00 medio   alto    alto    bajo    alto    alto   
 7 1         2021-01-01 09:00:00 medio   alto    alto    bajo    medio   alto   
 8 1         2021-01-01 10:00:00 medio   alto    alto    bajo    medio   alto   
 9 1         2021-01-01 11:00:00 medio   alto    alto    bajo    medio   alto   
10 1         2021-01-01 12:00:00 medio   alto    alto    bajo    medio   alto   
# … with 3,573,014 more rows, 3 more variables: temp_minima <fct>,
#   temp_maxima <fct>, direccion_del_viento <fct>, and abbreviated variable
#   names ¹​station_id, ²​temp_promedio_aire, ³​precipitacion_horaria,
#   ⁴​humed_rel_promedio, ⁵​presion_atmosferica, ⁶​radiacion_solar_max,
#   ⁷​veloc_max_viento
…
